[{"id":1,"first_name":"Zeke","last_name":"Tasch","email":"ztasch0@bizjournals.com","password":"eaNSMtoFd"},
{"id":2,"first_name":"Liza","last_name":"Grigoryev","email":"lgrigoryev1@europa.eu","password":"cibCDFCub"},
{"id":3,"first_name":"Storm","last_name":"Honeywood","email":"shoneywood2@webmd.com","password":"E1C4Sb7h"},
{"id":4,"first_name":"Balduin","last_name":"Jeacop","email":"bjeacop3@tmall.com","password":"T3g7wWpnRPQE"},
{"id":5,"first_name":"Carlin","last_name":"Massen","email":"cmassen4@nature.com","password":"KYMDPyyDG"},
{"id":6,"first_name":"Redford","last_name":"Ickovits","email":"rickovits5@sphinn.com","password":"oFwSuTBsReh"},
{"id":7,"first_name":"Pia","last_name":"Carbert","email":"pcarbert6@i2i.jp","password":"UEMV25r1KWY"},
{"id":8,"first_name":"Catlee","last_name":"Chatwood","email":"cchatwood7@vkontakte.ru","password":"ruWmjt25"},
{"id":9,"first_name":"Pauli","last_name":"Chesher","email":"pchesher8@zdnet.com","password":"aRgh7bxAwce"},
{"id":10,"first_name":"Frankie","last_name":"Milvarnie","email":"fmilvarnie9@cnet.com","password":"uSrikoxW"},
{"id":11,"first_name":"Alma","last_name":"Stocken","email":"astockena@wp.com","password":"0coFLrWDTE"},
{"id":12,"first_name":"Bard","last_name":"Arr","email":"barrb@stanford.edu","password":"XOdhEz"},
{"id":13,"first_name":"Debee","last_name":"Riseborough","email":"driseboroughc@yandex.ru","password":"kRKUNFMm1hoD"},
{"id":14,"first_name":"Florie","last_name":"Segot","email":"fsegotd@yahoo.com","password":"pzZRjmPLY"},
{"id":15,"first_name":"Heda","last_name":"Sizey","email":"hsizeye@friendfeed.com","password":"sNdubdlib3W"},
{"id":16,"first_name":"Locke","last_name":"Jopke","email":"ljopkef@archive.org","password":"nIrz44"},
{"id":17,"first_name":"Burke","last_name":"Chaffey","email":"bchaffeyg@mediafire.com","password":"88onIi"},
{"id":18,"first_name":"Rosette","last_name":"Pedican","email":"rpedicanh@xrea.com","password":"aGjspd1"},
{"id":19,"first_name":"Abigael","last_name":"Adshead","email":"aadsheadi@geocities.com","password":"xuVsnvXKKUb"},
{"id":20,"first_name":"Holt","last_name":"Pautard","email":"hpautardj@umich.edu","password":"u0eK3dVfn0"},
{"id":21,"first_name":"Gustavo","last_name":"Baukham","email":"gbaukhamk@alibaba.com","password":"mrQTpXkvHGya"},
{"id":22,"first_name":"Bee","last_name":"Greenleaf","email":"bgreenleafl@scientificamerican.com","password":"LdrxL0n"},
{"id":23,"first_name":"Lizbeth","last_name":"Lahy","email":"llahym@reference.com","password":"Oa5qmCTBGZy"},
{"id":24,"first_name":"Isabelita","last_name":"Sell","email":"iselln@sitemeter.com","password":"KTLypJhJ4GdA"},
{"id":25,"first_name":"Coletta","last_name":"Kayser","email":"ckaysero@thetimes.co.uk","password":"fnUCqK9T"},
{"id":26,"first_name":"Katya","last_name":"Jouanny","email":"kjouannyp@ycombinator.com","password":"bYBopikiEPs"},
{"id":27,"first_name":"Benedict","last_name":"Monketon","email":"bmonketonq@dailymail.co.uk","password":"M0ZPscNC"},
{"id":28,"first_name":"Silvie","last_name":"Kimblin","email":"skimblinr@123-reg.co.uk","password":"Mh4klIwrOCXY"},
{"id":29,"first_name":"Emmit","last_name":"Okenfold","email":"eokenfolds@wp.com","password":"9JDdqZXfV"},
{"id":30,"first_name":"Valentin","last_name":"Fellon","email":"vfellont@msu.edu","password":"hIB8AZ7d"}]